{
    "page": 1,
    "per_page": 15,
    "photos": [
        {
            "id": 189349,
            "width": 5760,
            "height": 3840,
            "url": "https://www.pexels.com/photo/body-of-water-during-golden-hour-189349/",
            "photographer": "Sebastian Voortman",
            "photographer_url": "https://www.pexels.com/@sebastian",
            "photographer_id": 44106,
            "avg_color": "#99775E",
            "src": {
                "original": "https://images.pexels.com/photos/189349/pexels-photo-189349.jpeg",
                "large2x": "https://images.pexels.com/photos/189349/pexels-photo-189349.jpeg?auto=compress\u0026cs=tinysrgb\u0026dpr=2\u0026h=650\u0026w=940",
                "large": "https://images.pexels.com/photos/189349/pexels-photo-189349.jpeg?auto=compress\u0026cs=tinysrgb\u0026h=650\u0026w=940",
                "medium": "https://images.pexels.com/photos/189349/pexels-photo-189349.jpeg?auto=compress\u0026cs=tinysrgb\u0026h=350",
                "small": "https://images.pexels.com/photos/189349/pexels-photo-189349.jpeg?auto=compress\u0026cs=tinysrgb\u0026h=130",
                "portrait": "https://images.pexels.com/photos/189349/pexels-photo-189349.jpeg?auto=compress\u0026cs=tinysrgb\u0026fit=crop\u0026h=1200\u0026w=800",
                "landscape": "https://images.pexels.com/photos/189349/pexels-photo-189349.jpeg?auto=compress\u0026cs=tinysrgb\u0026fit=crop\u0026h=627\u0026w=1200",
                "tiny": "https://images.pexels.com/photos/189349/pexels-photo-189349.jpeg?auto=compress\u0026cs=tinysrgb\u0026dpr=1\u0026fit=crop\u0026h=200\u0026w=280"
            },
            "liked": false
        },
        {
            "id": 1001682,
            "width": 3888,
            "height": 2592,
            "url": "https://www.pexels.com/photo/landscape-photograph-of-body-of-water-1001682/",
            "photographer": "Kellie Churchman",
            "photographer_url": "https://www.pexels.com/@kellie-churchman-371878",
            "photographer_id": 371878,
            "avg_color": "#7F9DA4",
            "src": {
                "original": "https://images.pexels.com/photos/1001682/pexels-photo-1001682.jpeg",
                "large2x": "https://images.pexels.com/photos/1001682/pexels-photo-1001682.jpeg?auto=compress\u0026cs=tinysrgb\u0026dpr=2\u0026h=650\u0026w=940",
                "large": "https://images.pexels.com/photos/1001682/pexels-photo-1001682.jpeg?auto=compress\u0026cs=tinysrgb\u0026h=650\u0026w=940",
                "medium": "https://images.pexels.com/photos/1001682/pexels-photo-1001682.jpeg?auto=compress\u0026cs=tinysrgb\u0026h=350",
                "small": "https://images.pexels.com/photos/1001682/pexels-photo-1001682.jpeg?auto=compress\u0026cs=tinysrgb\u0026h=130",
                "portrait": "https://images.pexels.com/photos/1001682/pexels-photo-1001682.jpeg?auto=compress\u0026cs=tinysrgb\u0026fit=crop\u0026h=1200\u0026w=800",
                "landscape": "https://images.pexels.com/photos/1001682/pexels-photo-1001682.jpeg?auto=compress\u0026cs=tinysrgb\u0026fit=crop\u0026h=627\u0026w=1200",
                "tiny": "https://images.pexels.com/photos/1001682/pexels-photo-1001682.jpeg?auto=compress\u0026cs=tinysrgb\u0026dpr=1\u0026fit=crop\u0026h=200\u0026w=280"
            },
            "liked": false
        },
        {
            "id": 1680140,
            "width": 2992,
            "height": 3992,
            "url": "https://www.pexels.com/photo/aerial-photography-of-seashore-1680140/",
            "photographer": "Daria Shevtsova",
            "photographer_url": "https://www.pexels.com/@daria",
            "photographer_id": 220024,
            "avg_color": "#8D9F9B",
            "src": {
                "original": "https://images.pexels.com/photos/1680140/pexels-photo-1680140.jpeg",
                "large2x": "https://images.pexels.com/photos/1680140/pexels-photo-1680140.jpeg?auto=compress\u0026cs=tinysrgb\u0026dpr=2\u0026h=650\u0026w=940",
                "large": "https://images.pexels.com/photos/1680140/pexels-photo-1680140.jpeg?auto=compress\u0026cs=tinysrgb\u0026h=650\u0026w=940",
                "medium": "https://images.pexels.com/photos/1680140/pexels-photo-1680140.jpeg?auto=compress\u0026cs=tinysrgb\u0026h=350",
                "small": "https://images.pexels.com/photos/1680140/pexels-photo-1680140.jpeg?auto=compress\u0026cs=tinysrgb\u0026h=130",
                "portrait": "https://images.pexels.com/photos/1680140/pexels-photo-1680140.jpeg?auto=compress\u0026cs=tinysrgb\u0026fit=crop\u0026h=1200\u0026w=800",
                "landscape": "https://images.pexels.com/photos/1680140/pexels-photo-1680140.jpeg?auto=compress\u0026cs=tinysrgb\u0026fit=crop\u0026h=627\u0026w=1200",
                "tiny": "https://images.pexels.com/photos/1680140/pexels-photo-1680140.jpeg?auto=compress\u0026cs=tinysrgb\u0026dpr=1\u0026fit=crop\u0026h=200\u0026w=280"
            },
            "liked": false
        },
        {
            "id": 533923,
            "width": 3000,
            "height": 2400,
            "url": "https://www.pexels.com/photo/blue-body-water-533923/",
            "photographer": "Pixabay",
            "photographer_url": "https://www.pexels.com/@pixabay",
            "photographer_id": 2659,
            "avg_color": "#708481",
            "src": {
                "original": "https://images.pexels.com/photos/533923/pexels-photo-533923.jpeg",
                "large2x": "https://images.pexels.com/photos/533923/pexels-photo-533923.jpeg?auto=compress\u0026cs=tinysrgb\u0026dpr=2\u0026h=650\u0026w=940",
                "large": "https://images.pexels.com/photos/533923/pexels-photo-533923.jpeg?auto=compress\u0026cs=tinysrgb\u0026h=650\u0026w=940",
                "medium": "https://images.pexels.com/photos/533923/pexels-photo-533923.jpeg?auto=compress\u0026cs=tinysrgb\u0026h=350",
                "small": "https://images.pexels.com/photos/533923/pexels-photo-533923.jpeg?auto=compress\u0026cs=tinysrgb\u0026h=130",
                "portrait": "https://images.pexels.com/photos/533923/pexels-photo-533923.jpeg?auto=compress\u0026cs=tinysrgb\u0026fit=crop\u0026h=1200\u0026w=800",
                "landscape": "https://images.pexels.com/photos/533923/pexels-photo-533923.jpeg?auto=compress\u0026cs=tinysrgb\u0026fit=crop\u0026h=627\u0026w=1200",
                "tiny": "https://images.pexels.com/photos/533923/pexels-photo-533923.jpeg?auto=compress\u0026cs=tinysrgb\u0026dpr=1\u0026fit=crop\u0026h=200\u0026w=280"
            },
            "liked": false
        },
        {
            "id": 847393,
            "width": 4000,
            "height": 3000,
            "url": "https://www.pexels.com/photo/photo-of-a-turtle-underwater-847393/",
            "photographer": "Belle Co",
            "photographer_url": "https://www.pexels.com/@belle-co-99483",
            "photographer_id": 99483,
            "avg_color": "#21684F",
            "src": {
                "original": "https://images.pexels.com/photos/847393/pexels-photo-847393.jpeg",
                "large2x": "https://images.pexels.com/photos/847393/pexels-photo-847393.jpeg?auto=compress\u0026cs=tinysrgb\u0026dpr=2\u0026h=650\u0026w=940",
                "large": "https://images.pexels.com/photos/847393/pexels-photo-847393.jpeg?auto=compress\u0026cs=tinysrgb\u0026h=650\u0026w=940",
                "medium": "https://images.pexels.com/photos/847393/pexels-photo-847393.jpeg?auto=compress\u0026cs=tinysrgb\u0026h=350",
                "small": "https://images.pexels.com/photos/847393/pexels-photo-847393.jpeg?auto=compress\u0026cs=tinysrgb\u0026h=130",
                "portrait": "https://images.pexels.com/photos/847393/pexels-photo-847393.jpeg?auto=compress\u0026cs=tinysrgb\u0026fit=crop\u0026h=1200\u0026w=800",
                "landscape": "https://images.pexels.com/photos/847393/pexels-photo-847393.jpeg?auto=compress\u0026cs=tinysrgb\u0026fit=crop\u0026h=627\u0026w=1200",
                "tiny": "https://images.pexels.com/photos/847393/pexels-photo-847393.jpeg?auto=compress\u0026cs=tinysrgb\u0026dpr=1\u0026fit=crop\u0026h=200\u0026w=280"
            },
            "liked": false
        },
        {
            "id": 932638,
            "width": 6000,
            "height": 4000,
            "url": "https://www.pexels.com/photo/fish-underwater-932638/",
            "photographer": "Blaque X",
            "photographer_url": "https://www.pexels.com/@blaque-x-264516",
            "photographer_id": 264516,
            "avg_color": "#1383F",
            "src": {
                "original": "https://images.pexels.com/photos/932638/pexels-photo-932638.jpeg",
                "large2x": "https://images.pexels.com/photos/932638/pexels-photo-932638.jpeg?auto=compress\u0026cs=tinysrgb\u0026dpr=2\u0026h=650\u0026w=940",
                "large": "https://images.pexels.com/photos/932638/pexels-photo-932638.jpeg?auto=compress\u0026cs=tinysrgb\u0026h=650\u0026w=940",
                "medium": "https://images.pexels.com/photos/932638/pexels-photo-932638.jpeg?auto=compress\u0026cs=tinysrgb\u0026h=350",
                "small": "https://images.pexels.com/photos/932638/pexels-photo-932638.jpeg?auto=compress\u0026cs=tinysrgb\u0026h=130",
                "portrait": "https://images.pexels.com/photos/932638/pexels-photo-932638.jpeg?auto=compress\u0026cs=tinysrgb\u0026fit=crop\u0026h=1200\u0026w=800",
                "landscape": "https://images.pexels.com/photos/932638/pexels-photo-932638.jpeg?auto=compress\u0026cs=tinysrgb\u0026fit=crop\u0026h=627\u0026w=1200",
                "tiny": "https://images.pexels.com/photos/932638/pexels-photo-932638.jpeg?auto=compress\u0026cs=tinysrgb\u0026dpr=1\u0026fit=crop\u0026h=200\u0026w=280"
            },
            "liked": false
        },
        {
            "id": 1802268,
            "width": 3879,
            "height": 5818,
            "url": "https://www.pexels.com/photo/blue-and-white-abstract-painting-1802268/",
            "photographer": "Ricardo Esquivel",
            "photographer_url": "https://www.pexels.com/@rickyrecap",
            "photographer_id": 722822,
            "avg_color": "#567680",
            "src": {
                "original": "https://images.pexels.com/photos/1802268/pexels-photo-1802268.jpeg",
                "large2x": "https://images.pexels.com/photos/1802268/pexels-photo-1802268.jpeg?auto=compress\u0026cs=tinysrgb\u0026dpr=2\u0026h=650\u0026w=940",
                "large": "https://images.pexels.com/photos/1802268/pexels-photo-1802268.jpeg?auto=compress\u0026cs=tinysrgb\u0026h=650\u0026w=940",
                "medium": "https://images.pexels.com/photos/1802268/pexels-photo-1802268.jpeg?auto=compress\u0026cs=tinysrgb\u0026h=350",
                "small": "https://images.pexels.com/photos/1802268/pexels-photo-1802268.jpeg?auto=compress\u0026cs=tinysrgb\u0026h=130",
                "portrait": "https://images.pexels.com/photos/1802268/pexels-photo-1802268.jpeg?auto=compress\u0026cs=tinysrgb\u0026fit=crop\u0026h=1200\u0026w=800",
                "landscape": "https://images.pexels.com/photos/1802268/pexels-photo-1802268.jpeg?auto=compress\u0026cs=tinysrgb\u0026fit=crop\u0026h=627\u0026w=1200",
                "tiny": "https://images.pexels.com/photos/1802268/pexels-photo-1802268.jpeg?auto=compress\u0026cs=tinysrgb\u0026dpr=1\u0026fit=crop\u0026h=200\u0026w=280"
            },
            "liked": false
        },
        {
            "id": 1533720,
            "width": 6000,
            "height": 4000,
            "url": "https://www.pexels.com/photo/body-of-water-under-blue-and-white-skies-1533720/",
            "photographer": "Matt Hardy",
            "photographer_url": "https://www.pexels.com/@matthardy",
            "photographer_id": 372053,
            "avg_color": "#7E97A0",
            "src": {
                "original": "https://images.pexels.com/photos/1533720/pexels-photo-1533720.jpeg",
                "large2x": "https://images.pexels.com/photos/1533720/pexels-photo-1533720.jpeg?auto=compress\u0026cs=tinysrgb\u0026dpr=2\u0026h=650\u0026w=940",
                "large": "https://images.pexels.com/photos/1533720/pexels-photo-1533720.jpeg?auto=compress\u0026cs=tinysrgb\u0026h=650\u0026w=940",
                "medium": "https://images.pexels.com/photos/1533720/pexels-photo-1533720.jpeg?auto=compress\u0026cs=tinysrgb\u0026h=350",
                "small": "https://images.pexels.com/photos/1533720/pexels-photo-1533720.jpeg?auto=compress\u0026cs=tinysrgb\u0026h=130",
                "portrait": "https://images.pexels.com/photos/1533720/pexels-photo-1533720.jpeg?auto=compress\u0026cs=tinysrgb\u0026fit=crop\u0026h=1200\u0026w=800",
                "landscape": "https://images.pexels.com/photos/1533720/pexels-photo-1533720.jpeg?auto=compress\u0026cs=tinysrgb\u0026fit=crop\u0026h=627\u0026w=1200",
                "tiny": "https://images.pexels.com/photos/1533720/pexels-photo-1533720.jpeg?auto=compress\u0026cs=tinysrgb\u0026dpr=1\u0026fit=crop\u0026h=200\u0026w=280"
            },
            "liked": false
        },
        {
            "id": 561463,
            "width": 3269,
            "height": 4810,
            "url": "https://www.pexels.com/photo/view-of-ocean-during-golden-hour-561463/",
            "photographer": "Александр Прокофьев",
            "photographer_url": "https://www.pexels.com/@13nuance",
            "photographer_id": 171478,
            "avg_color": "#6A5045",
            "src": {
                "original": "https://images.pexels.com/photos/561463/pexels-photo-561463.jpeg",
                "large2x": "https://images.pexels.com/photos/561463/pexels-photo-561463.jpeg?auto=compress\u0026cs=tinysrgb\u0026dpr=2\u0026h=650\u0026w=940",
                "large": "https://images.pexels.com/photos/561463/pexels-photo-561463.jpeg?auto=compress\u0026cs=tinysrgb\u0026h=650\u0026w=940",
                "medium": "https://images.pexels.com/photos/561463/pexels-photo-561463.jpeg?auto=compress\u0026cs=tinysrgb\u0026h=350",
                "small": "https://images.pexels.com/photos/561463/pexels-photo-561463.jpeg?auto=compress\u0026cs=tinysrgb\u0026h=130",
                "portrait": "https://images.pexels.com/photos/561463/pexels-photo-561463.jpeg?auto=compress\u0026cs=tinysrgb\u0026fit=crop\u0026h=1200\u0026w=800",
                "landscape": "https://images.pexels.com/photos/561463/pexels-photo-561463.jpeg?auto=compress\u0026cs=tinysrgb\u0026fit=crop\u0026h=627\u0026w=1200",
                "tiny": "https://images.pexels.com/photos/561463/pexels-photo-561463.jpeg?auto=compress\u0026cs=tinysrgb\u0026dpr=1\u0026fit=crop\u0026h=200\u0026w=280"
            },
            "liked": false
        },
        {
            "id": 37403,
            "width": 7020,
            "height": 3163,
            "url": "https://www.pexels.com/photo/body-of-water-during-dawn-37403/",
            "photographer": "Pixabay",
            "photographer_url": "https://www.pexels.com/@pixabay",
            "photographer_id": 2659,
            "avg_color": "#4C7B9A",
            "src": {
                "original": "https://images.pexels.com/photos/37403/bora-bora-french-polynesia-sunset-ocean.jpg",
                "large2x": "https://images.pexels.com/photos/37403/bora-bora-french-polynesia-sunset-ocean.jpg?auto=compress\u0026cs=tinysrgb\u0026dpr=2\u0026h=650\u0026w=940",
                "large": "https://images.pexels.com/photos/37403/bora-bora-french-polynesia-sunset-ocean.jpg?auto=compress\u0026cs=tinysrgb\u0026h=650\u0026w=940",
                "medium": "https://images.pexels.com/photos/37403/bora-bora-french-polynesia-sunset-ocean.jpg?auto=compress\u0026cs=tinysrgb\u0026h=350",
                "small": "https://images.pexels.com/photos/37403/bora-bora-french-polynesia-sunset-ocean.jpg?auto=compress\u0026cs=tinysrgb\u0026h=130",
                "portrait": "https://images.pexels.com/photos/37403/bora-bora-french-polynesia-sunset-ocean.jpg?auto=compress\u0026cs=tinysrgb\u0026fit=crop\u0026h=1200\u0026w=800",
                "landscape": "https://images.pexels.com/photos/37403/bora-bora-french-polynesia-sunset-ocean.jpg?auto=compress\u0026cs=tinysrgb\u0026fit=crop\u0026h=627\u0026w=1200",
                "tiny": "https://images.pexels.com/photos/37403/bora-bora-french-polynesia-sunset-ocean.jpg?auto=compress\u0026cs=tinysrgb\u0026dpr=1\u0026fit=crop\u0026h=200\u0026w=280"
            },
            "liked": false
        },
        {
            "id": 756856,
            "width": 1836,
            "height": 2291,
            "url": "https://www.pexels.com/photo/blue-and-white-ocean-756856/",
            "photographer": "Thach Tran",
            "photographer_url": "https://www.pexels.com/@thachtran",
            "photographer_id": 227335,
            "avg_color": "#748791",
            "src": {
                "original": "https://images.pexels.com/photos/756856/pexels-photo-756856.jpeg",
                "large2x": "https://images.pexels.com/photos/756856/pexels-photo-756856.jpeg?auto=compress\u0026cs=tinysrgb\u0026dpr=2\u0026h=650\u0026w=940",
                "large": "https://images.pexels.com/photos/756856/pexels-photo-756856.jpeg?auto=compress\u0026cs=tinysrgb\u0026h=650\u0026w=940",
                "medium": "https://images.pexels.com/photos/756856/pexels-photo-756856.jpeg?auto=compress\u0026cs=tinysrgb\u0026h=350",
                "small": "https://images.pexels.com/photos/756856/pexels-photo-756856.jpeg?auto=compress\u0026cs=tinysrgb\u0026h=130",
                "portrait": "https://images.pexels.com/photos/756856/pexels-photo-756856.jpeg?auto=compress\u0026cs=tinysrgb\u0026fit=crop\u0026h=1200\u0026w=800",
                "landscape": "https://images.pexels.com/photos/756856/pexels-photo-756856.jpeg?auto=compress\u0026cs=tinysrgb\u0026fit=crop\u0026h=627\u0026w=1200",
                "tiny": "https://images.pexels.com/photos/756856/pexels-photo-756856.jpeg?auto=compress\u0026cs=tinysrgb\u0026dpr=1\u0026fit=crop\u0026h=200\u0026w=280"
            },
            "liked": false
        },
        {
            "id": 994605,
            "width": 2726,
            "height": 2047,
            "url": "https://www.pexels.com/photo/seaside-994605/",
            "photographer": "Fabian Wiktor",
            "photographer_url": "https://www.pexels.com/@fabianwiktor",
            "photographer_id": 369193,
            "avg_color": "#88979C",
            "src": {
                "original": "https://images.pexels.com/photos/994605/pexels-photo-994605.jpeg",
                "large2x": "https://images.pexels.com/photos/994605/pexels-photo-994605.jpeg?auto=compress\u0026cs=tinysrgb\u0026dpr=2\u0026h=650\u0026w=940",
                "large": "https://images.pexels.com/photos/994605/pexels-photo-994605.jpeg?auto=compress\u0026cs=tinysrgb\u0026h=650\u0026w=940",
                "medium": "https://images.pexels.com/photos/994605/pexels-photo-994605.jpeg?auto=compress\u0026cs=tinysrgb\u0026h=350",
                "small": "https://images.pexels.com/photos/994605/pexels-photo-994605.jpeg?auto=compress\u0026cs=tinysrgb\u0026h=130",
                "portrait": "https://images.pexels.com/photos/994605/pexels-photo-994605.jpeg?auto=compress\u0026cs=tinysrgb\u0026fit=crop\u0026h=1200\u0026w=800",
                "landscape": "https://images.pexels.com/photos/994605/pexels-photo-994605.jpeg?auto=compress\u0026cs=tinysrgb\u0026fit=crop\u0026h=627\u0026w=1200",
                "tiny": "https://images.pexels.com/photos/994605/pexels-photo-994605.jpeg?auto=compress\u0026cs=tinysrgb\u0026dpr=1\u0026fit=crop\u0026h=200\u0026w=280"
            },
            "liked": false
        },
        {
            "id": 2860705,
            "width": 4000,
            "height": 6000,
            "url": "https://www.pexels.com/photo/blue-water-2860705/",
            "photographer": "Aaron Ulsh",
            "photographer_url": "https://www.pexels.com/@aulsh99",
            "photographer_id": 1485322,
            "avg_color": "#5187A8",
            "src": {
                "original": "https://images.pexels.com/photos/2860705/pexels-photo-2860705.jpeg",
                "large2x": "https://images.pexels.com/photos/2860705/pexels-photo-2860705.jpeg?auto=compress\u0026cs=tinysrgb\u0026dpr=2\u0026h=650\u0026w=940",
                "large": "https://images.pexels.com/photos/2860705/pexels-photo-2860705.jpeg?auto=compress\u0026cs=tinysrgb\u0026h=650\u0026w=940",
                "medium": "https://images.pexels.com/photos/2860705/pexels-photo-2860705.jpeg?auto=compress\u0026cs=tinysrgb\u0026h=350",
                "small": "https://images.pexels.com/photos/2860705/pexels-photo-2860705.jpeg?auto=compress\u0026cs=tinysrgb\u0026h=130",
                "portrait": "https://images.pexels.com/photos/2860705/pexels-photo-2860705.jpeg?auto=compress\u0026cs=tinysrgb\u0026fit=crop\u0026h=1200\u0026w=800",
                "landscape": "https://images.pexels.com/photos/2860705/pexels-photo-2860705.jpeg?auto=compress\u0026cs=tinysrgb\u0026fit=crop\u0026h=627\u0026w=1200",
                "tiny": "https://images.pexels.com/photos/2860705/pexels-photo-2860705.jpeg?auto=compress\u0026cs=tinysrgb\u0026dpr=1\u0026fit=crop\u0026h=200\u0026w=280"
            },
            "liked": false
        },
        {
            "id": 1452701,
            "width": 5472,
            "height": 3072,
            "url": "https://www.pexels.com/photo/photo-of-bubbles-underwater-1452701/",
            "photographer": "Berend de Kort",
            "photographer_url": "https://www.pexels.com/@berend",
            "photographer_id": 310116,
            "avg_color": "#26606E",
            "src": {
                "original": "https://images.pexels.com/photos/1452701/pexels-photo-1452701.jpeg",
                "large2x": "https://images.pexels.com/photos/1452701/pexels-photo-1452701.jpeg?auto=compress\u0026cs=tinysrgb\u0026dpr=2\u0026h=650\u0026w=940",
                "large": "https://images.pexels.com/photos/1452701/pexels-photo-1452701.jpeg?auto=compress\u0026cs=tinysrgb\u0026h=650\u0026w=940",
                "medium": "https://images.pexels.com/photos/1452701/pexels-photo-1452701.jpeg?auto=compress\u0026cs=tinysrgb\u0026h=350",
                "small": "https://images.pexels.com/photos/1452701/pexels-photo-1452701.jpeg?auto=compress\u0026cs=tinysrgb\u0026h=130",
                "portrait": "https://images.pexels.com/photos/1452701/pexels-photo-1452701.jpeg?auto=compress\u0026cs=tinysrgb\u0026fit=crop\u0026h=1200\u0026w=800",
                "landscape": "https://images.pexels.com/photos/1452701/pexels-photo-1452701.jpeg?auto=compress\u0026cs=tinysrgb\u0026fit=crop\u0026h=627\u0026w=1200",
                "tiny": "https://images.pexels.com/photos/1452701/pexels-photo-1452701.jpeg?auto=compress\u0026cs=tinysrgb\u0026dpr=1\u0026fit=crop\u0026h=200\u0026w=280"
            },
            "liked": false
        },
        {
            "id": 1076758,
            "width": 3230,
            "height": 3648,
            "url": "https://www.pexels.com/photo/shallow-focus-photo-of-pink-and-brown-jellyfish-1076758/",
            "photographer": "Pawel Kalisinski",
            "photographer_url": "https://www.pexels.com/@pawelkalisinski",
            "photographer_id": 408169,
            "avg_color": "#5C7CB1",
            "src": {
                "original": "https://images.pexels.com/photos/1076758/pexels-photo-1076758.jpeg",
                "large2x": "https://images.pexels.com/photos/1076758/pexels-photo-1076758.jpeg?auto=compress\u0026cs=tinysrgb\u0026dpr=2\u0026h=650\u0026w=940",
                "large": "https://images.pexels.com/photos/1076758/pexels-photo-1076758.jpeg?auto=compress\u0026cs=tinysrgb\u0026h=650\u0026w=940",
                "medium": "https://images.pexels.com/photos/1076758/pexels-photo-1076758.jpeg?auto=compress\u0026cs=tinysrgb\u0026h=350",
                "small": "https://images.pexels.com/photos/1076758/pexels-photo-1076758.jpeg?auto=compress\u0026cs=tinysrgb\u0026h=130",
                "portrait": "https://images.pexels.com/photos/1076758/pexels-photo-1076758.jpeg?auto=compress\u0026cs=tinysrgb\u0026fit=crop\u0026h=1200\u0026w=800",
                "landscape": "https://images.pexels.com/photos/1076758/pexels-photo-1076758.jpeg?auto=compress\u0026cs=tinysrgb\u0026fit=crop\u0026h=627\u0026w=1200",
                "tiny": "https://images.pexels.com/photos/1076758/pexels-photo-1076758.jpeg?auto=compress\u0026cs=tinysrgb\u0026dpr=1\u0026fit=crop\u0026h=200\u0026w=280"
            },
            "liked": false
        }
    ],
    "total_results": 8000,
    "next_page": "https://api.pexels.com/v1/search/?page=2\u0026per_page=15\u0026query=ocean"
}